// Jest Snapshot v1, https://goo.gl/fbAQLP

exports[`Tooltip component should render successfully 1`] = `
<div
  className="tooltip"
>
  Test content
  <span
    className="tooltip__text"
  >
    test text
  </span>
</div>
`;
